<?xml version="1.0" encoding="UTF-8"?>
<svg width="1440px" height="148px" viewBox="0 0 1440 148" version="1.1" xmlns="http://www.w3.org/2000/svg" xmlns:xlink="http://www.w3.org/1999/xlink">
    <!-- Generator: Sketch 45 (43475) - http://www.bohemiancoding.com/sketch -->
    <title>Home</title>
    <desc>Created with Sketch.</desc>
    <defs>
        <linearGradient x1="3.061617e-15%" y1="50%" x2="98.8879145%" y2="50%" id="linearGradient-1">
            <stop stop-color="#54A8D2" offset="0%"></stop>
            <stop stop-color="#CBD832" offset="100%"></stop>
        </linearGradient>
    </defs>
    <g id="Page-1" stroke="none" stroke-width="1" fill="none" fill-rule="evenodd">
        <g id="Home" transform="translate(0.000000, -4323.000000)">
            <g id="Group-25" transform="translate(0.000000, 3886.000000)" fill="#F1F6F8">
                <rect id="Rectangle-11" x="0" y="160" width="1440" height="447"></rect>
            </g>
            <g id="Group-26" transform="translate(0.000000, 4327.000000)">
                <g id="Group-13">
                    <g id="Group-5" fill-rule="nonzero" fill="url(#linearGradient-1)" opacity="0.400000006">
                        <path d="M0.992513479,59.9522174 C9.63698555,60.1450709 20.4739866,59.6948423 29.546131,59.9522174 C736.408761,80.0057866 863.66012,17 1217.63993,17 C1300.80299,17 1373.47952,26.1162977 1438.78143,40.3113495 C1441.52322,40.3113493 1438.78143,233 1438.78143,233 L0.992513479,233 C0.247176813,233 -0.807524446,60.627162 0.992513479,59.9522174 Z" id="Shape"></path>
                        <path d="M0,35.3237021 C151.309037,19.9483481 239.781742,-2.37947469e-14 430.164918,0 C767.900428,3.25970048e-14 866.678092,69.2816327 1440,72.694166 L1440,234 L0,234 C0,234 7.01357961e-07,35.3237032 0,35.3237021 Z" id="Shape"></path>
                    </g>
                    <path d="M6.31229968e-16,78.0097326 C344.316533,77.0866288 613.480149,142.135863 943.224439,142.135863 C1141.14688,142.135863 1321.94672,123.273817 1440,106.880654 L1440,234 L0,234 L6.31229968e-16,186.028298 C6.31229968e-16,186.028298 2.21107266e-06,77.7298675 6.31229968e-16,78.0097326 Z" id="Shape" fill="#FFFFFF"></path>
                </g>
            </g>
        </g>
    </g>
</svg>