<?xml version="1.0" encoding="UTF-8"?>
<svg width="1445px" height="156px" viewBox="0 0 1445 156" version="1.1" xmlns="http://www.w3.org/2000/svg" xmlns:xlink="http://www.w3.org/1999/xlink">
    <!-- Generator: Sketch 44.1 (41455) - http://www.bohemiancoding.com/sketch -->
    <title>Group 25 Copy</title>
    <desc>Created with Sketch.</desc>
    <defs>
        <path d="M6.33421739e-16,0.00973258921 C345.512076,-0.913371203 615.610289,64.1358628 946.499524,64.1358628 C1145.10919,64.1358628 1326.53681,45.2738168 1445,28.880654 L1445,156 L0,156 L6.33421739e-16,108.028298 C6.33421739e-16,108.028298 2.21874999e-06,-0.270132482 6.33421739e-16,0.00973258921 Z" id="path-1"></path>
    </defs>
    <g id="Page-1" stroke="none" stroke-width="1" fill="none" fill-rule="evenodd">
        <g id="Group-25-Copy">
            <g id="Group-17" transform="translate(722.500000, 78.000000) scale(-1, 1) translate(-722.500000, -78.000000) ">
                <g id="Group-16">
                    <g id="Group-18">
                        <g id="Group-17">
                            <g id="Group-16">
                                <g id="Group-18">
                                    <path d="M6.33421739e-16,0.00973258921 C345.512076,-0.913371203 615.610289,64.1358628 946.499524,64.1358628 C1145.10919,64.1358628 1326.53681,45.2738168 1445,28.880654 L1445,156 L0,156 L6.33421739e-16,108.028298 C6.33421739e-16,108.028298 2.21874999e-06,-0.270132482 6.33421739e-16,0.00973258921 Z" id="Shape-Copy-2" fill="#F1F6F8"></path>
                                    <g id="Shape">
                                        <mask id="mask-2" fill="white">
                                            <use xlink:href="#path-1"></use>
                                        </mask>
                                        <use id="Mask" fill="#FFFFFF" xlink:href="#path-1"></use>
                                        <path d="M6.33421739e-16,-13.9902674 C345.512076,-14.9133712 615.610289,50.1358628 946.499524,50.1358628 C1145.10919,50.1358628 1326.53681,31.2738168 1445,14.880654 L1445,142 L0,142 L6.33421739e-16,94.0282979 C6.33421739e-16,94.0282979 2.21874999e-06,-14.2701325 6.33421739e-16,-13.9902674 Z" fill="#EEF3F5" mask="url(#mask-2)" transform="translate(722.500000, 64.000000) scale(-1, -1) translate(-722.500000, -64.000000) "></path>
                                    </g>
                                </g>
                            </g>
                        </g>
                    </g>
                </g>
            </g>
        </g>
    </g>
</svg>